%YAML 1.1
%TAG !u! tag:unity3d.com,2011:
--- !u!114 &11400000
MonoBehaviour:
  m_ObjectHideFlags: 0
  m_CorrespondingSourceObject: {fileID: 0}
  m_PrefabInstance: {fileID: 0}
  m_PrefabAsset: {fileID: 0}
  m_GameObject: {fileID: 0}
  m_Enabled: 1
  m_EditorHideFlags: 0
  m_Script: {fileID: 11500000, guid: 087c4c5756ea15949868ae1a86ae6e9a, type: 3}
  m_Name: Common Potion 4
  m_EditorClassIdentifier: 
  nameTemplate: Common Potion {EffectSuffix}
  numberInWorld: 100000
  prefab: {fileID: 7804689436116807285, guid: 69054a16b89cd4c409d1a8c2ad705933, type: 3}
  volumeCubicFeet: 0.125
  weightPounds: 0.25
  worthGoldPieces: 10
