%YAML 1.1
%TAG !u! tag:unity3d.com,2011:
--- !u!114 &11400000
MonoBehaviour:
  m_ObjectHideFlags: 0
  m_CorrespondingSourceObject: {fileID: 0}
  m_PrefabInstance: {fileID: 0}
  m_PrefabAsset: {fileID: 0}
  m_GameObject: {fileID: 0}
  m_Enabled: 1
  m_EditorHideFlags: 0
  m_Script: {fileID: 11500000, guid: 087c4c5756ea15949868ae1a86ae6e9a, type: 3}
  m_Name: Sword 3
  m_EditorClassIdentifier: 
  nameTemplate: Sword  {EffectSuffix}
  numberInWorld: 10000
  prefab: {fileID: 4847010755816622443, guid: 19abbd14bf82f4204a4bf413fdae24a1, type: 3}
  volumeCubicFeet: 4
  weightPounds: 1
  worthGoldPieces: 100
