%YAML 1.1
%TAG !u! tag:unity3d.com,2011:
--- !u!1045 &1
EditorBuildSettings:
  m_ObjectHideFlags: 0
  serializedVersion: 2
  m_Scenes:
  - enabled: 1
    path: Assets/Scenes/Title.unity
    guid: 46faaf4b823bf4bc9a49832d8ed00af6
  - enabled: 1
    path: Assets/Scenes/Credits.unity
    guid: 5018996056fc4423180c21b3ba5291d8
  - enabled: 1
    path: Assets/Scenes/Main.unity
    guid: 4034ba93d89b84689ae3e164a1df032b
  m_configObjects: {}
