%YAML 1.1
%TAG !u! tag:unity3d.com,2011:
--- !u!1 &3390358988810865651
GameObject:
  m_ObjectHideFlags: 0
  m_CorrespondingSourceObject: {fileID: 0}
  m_PrefabInstance: {fileID: 0}
  m_PrefabAsset: {fileID: 0}
  serializedVersion: 6
  m_Component:
  - component: {fileID: 3390358988810865653}
  - component: {fileID: 3390358988810865652}
  m_Layer: 0
  m_Name: LootGenerator
  m_TagString: Untagged
  m_Icon: {fileID: 0}
  m_NavMeshLayer: 0
  m_StaticEditorFlags: 0
  m_IsActive: 1
--- !u!4 &3390358988810865653
Transform:
  m_ObjectHideFlags: 0
  m_CorrespondingSourceObject: {fileID: 0}
  m_PrefabInstance: {fileID: 0}
  m_PrefabAsset: {fileID: 0}
  m_GameObject: {fileID: 3390358988810865651}
  m_LocalRotation: {x: 0, y: 0, z: 0, w: 1}
  m_LocalPosition: {x: 935, y: 540, z: 0}
  m_LocalScale: {x: 1, y: 1, z: 1}
  m_Children: []
  m_Father: {fileID: 0}
  m_RootOrder: 0
  m_LocalEulerAnglesHint: {x: 0, y: 0, z: 0}
--- !u!114 &3390358988810865652
MonoBehaviour:
  m_ObjectHideFlags: 0
  m_CorrespondingSourceObject: {fileID: 0}
  m_PrefabInstance: {fileID: 0}
  m_PrefabAsset: {fileID: 0}
  m_GameObject: {fileID: 3390358988810865651}
  m_Enabled: 1
  m_EditorHideFlags: 0
  m_Script: {fileID: 11500000, guid: 6259163741de70daf9711b606d3b2e12, type: 3}
  m_Name: 
  m_EditorClassIdentifier: 
  loot:
  - {fileID: 11400000, guid: ac0d0dcd221914311b13535f5a6b008b, type: 2}
  - {fileID: 11400000, guid: 6c576d1bf2bfc6cb7ac44db32eefc88c, type: 2}
  - {fileID: 11400000, guid: a09d8113cda5045a2896b02274a0b5f0, type: 2}
  - {fileID: 11400000, guid: 6092d2503eae1471ea0da20ec2750479, type: 2}
  - {fileID: 11400000, guid: 36f2ac09a59384c6eb52a3c5e899e06c, type: 2}
  - {fileID: 11400000, guid: f1fc8968552a846e2a46d833b9dab561, type: 2}
  - {fileID: 11400000, guid: 32c1364548fdd4f008fe0f5a28c46053, type: 2}
  - {fileID: 11400000, guid: 6d07de1e20fe94c498a61fd537a218a7, type: 2}
  - {fileID: 11400000, guid: 76f629f83a3c33656a76df5a8d2de95f, type: 2}
  - {fileID: 11400000, guid: b1ffd45c4b2554011acd3641d8a90014, type: 2}
  - {fileID: 11400000, guid: c64f3c17dbd084f108336e2c57fb274b, type: 2}
  - {fileID: 11400000, guid: 0c8690e7e148d42e0bebe1a68e46e35a, type: 2}
  - {fileID: 11400000, guid: 1b4d2b2c1aafb467da0ad593f8a6a2b2, type: 2}
  - {fileID: 11400000, guid: fc80d95ccf1894df58da1b029e7ebad2, type: 2}
  - {fileID: 11400000, guid: 4d0c0242daa0b4f47be061cf8afd3f92, type: 2}
  - {fileID: 11400000, guid: 6b86a8ab59d564b0da3c4f5d497ca1be, type: 2}
  - {fileID: 11400000, guid: 327040be6a0e649a89376ea7800b115e, type: 2}
